Squeezing R with awesome packages
…
OVERVIEW

Lets load some data

fpkm <- read.table("data/curso_R_fpkm.tsv", header = TRUE, sep='\t', dec=',')
phenot <- read.table("data/curso_R_fenot.csv", header = TRUE, sep=',', dec='.')
microb <- read.table("data/curso_R_microb.csv", header = TRUE, stringsAsFactors = FALSE, sep=';', dec='.')

as_tibble(fpkm)
as_tibble(phenot)
as_tibble(microb)

Show/Hide

## # A tibble: 65 x 13
##    Gene.ID.Shortna~    Sam1    Sam2   Sam3    Sam4    Sam5    Sam6    Sam7    Sam8    Sam9   Sam10
##    <fct>              <dbl>   <dbl>  <dbl>   <dbl>   <dbl>   <dbl>   <dbl>   <dbl>   <dbl>   <dbl>
##  1 XLOC_000013;DAC~  7.24   7.09e+0  7.49   6.03    9.13    7.99    8.20   8.95e+0 7.27e+0   9.51 
##  2 XLOC_000014;FRM~ 53.3    1.05e+2 75.7   55.8    83.5    64.5    57.4    6.60e+1 1.38e+2 127.   
##  3 XLOC_000015;UNC~  0.726  5.51e-1  1.03   0.569   0.399   0.445   1.10   7.97e-1 5.38e-1   0.740
##  4 XLOC_000016;TTL~  8.61   6.53e+0  8.13   8.02    5.79    5.55    8.31   7.38e+0 6.72e+0   6.97 
##  5 XLOC_000017;GPR~  0.307  2.78e-1  0.137  0.154   0.0218  0.0781  0.335  4.06e-7 2.65e-1   0.218
##  6 XLOC_000018;C8o~  0      1.38e-1  0      0       0.0293  0       0      0.      9.90e-2   0    
##  7 XLOC_002969;GRE~  0.0434 6.39e-2  0      0.0207  0.0226  0       0.0173 0.      2.98e-2   0    
##  8 XLOC_002970;RGS~  2.90   6.85e-1  1.95   2.01    0.476   0.784   0.642  6.06e-1 9.05e-1   1.42 
##  9 XLOC_002971;FH;~  0      1.49e-1  0      0.0853  0       0.0830  0      0.      0.        0.104
## 10 XLOC_002972;ZNF~ 23.7    2.12e+1 22.8   23.2    22.6    21.5    24.0    2.54e+1 2.20e+1  18.8  
## # ... with 55 more rows, and 2 more variables: Sam11 <dbl>, Sam12 <dbl>

## # A tibble: 24 x 8
##    ID_sample Breed  Diet Weight..kg. Weight.month Loin.weight.1 Loin.weight.2   WHC
##    <fct>     <fct> <int>       <dbl>        <int>         <dbl>         <dbl> <dbl>
##  1 Sample 1  IB        1        98.5           10         NA            NA     NA  
##  2 Sample 1  IB        1       120.            13          2.19          2.4   21.5
##  3 Sample 2  DU        1        99.9           10         NA            NA     NA  
##  4 Sample 2  DU        1       135.            13          2.28          2.24  23.7
##  5 Sample 3  IB        1       100.            10         NA            NA     NA  
##  6 Sample 3  IB        1       133.            13          2.29          2.36  20.6
##  7 Sample 4  IB        1        98.8           10         NA            NA     NA  
##  8 Sample 4  IB        1       129.            13          2.26          2.4   24.6
##  9 Sample 5  DU        1       101.            10         NA            NA     NA  
## 10 Sample 5  DU        1       137.            13          1.95          1.89  24.2
## # ... with 14 more rows
…
3) Create new variables in function to existing ones

Function mutate() creates new columns based on the values of other existing columns. Now, we will create a new column which is a modification of WHC (water holding capacity), transforming the precentage units into decimals.

phenot <- phenot %>% mutate(WHC_dec = WHC/100)
as_tibble(phenot)

## # A tibble: 24 x 9
##    ID_sample Breed  Diet Weight_kg Month LoinW_1 LoinW_2   WHC WHC_dec
##    <fct>     <fct> <int>     <dbl> <int>   <dbl>   <dbl> <dbl>   <dbl>
##  1 Sample 1  IB        1      98.5    10   NA      NA     NA    NA    
##  2 Sample 1  IB        1     120.     13    2.19    2.4   21.5   0.215
##  3 Sample 2  DU        1      99.9    10   NA      NA     NA    NA    
##  4 Sample 2  DU        1     135.     13    2.28    2.24  23.7   0.237
##  5 Sample 3  IB        1     100.     10   NA      NA     NA    NA    
##  6 Sample 3  IB        1     133.     13    2.29    2.36  20.6   0.206
##  7 Sample 4  IB        1      98.8    10   NA      NA     NA    NA    
##  8 Sample 4  IB        1     129.     13    2.26    2.4   24.6   0.246
##  9 Sample 5  DU        1     101.     10   NA      NA     NA    NA    
## 10 Sample 5  DU        1     137.     13    1.95    1.89  24.2   0.242
## # ... with 14 more rows

4) Pick variables by their names

Now, we will take only the classification factors, animal weight, loin weights and water holding capacity in decimal terms, using select()function. Notice that column order changes according to input order.

phenot_sub <- phenot %>% select(ID_sample, Breed, Diet, Weight_kg, LoinW_1, LoinW_2, WHC_dec)
as_tibble(phenot_sub)

## # A tibble: 24 x 7
##    ID_sample Breed  Diet Weight_kg LoinW_1 LoinW_2 WHC_dec
##    <fct>     <fct> <int>     <dbl>   <dbl>   <dbl>   <dbl>
##  1 Sample 1  IB        1      98.5   NA      NA     NA    
##  2 Sample 1  IB        1     120.     2.19    2.4    0.215
##  3 Sample 2  DU        1      99.9   NA      NA     NA    
##  4 Sample 2  DU        1     135.     2.28    2.24   0.237
##  5 Sample 3  IB        1     100.    NA      NA     NA    
##  6 Sample 3  IB        1     133.     2.29    2.36   0.206
##  7 Sample 4  IB        1      98.8   NA      NA     NA    
##  8 Sample 4  IB        1     129.     2.26    2.4    0.246
##  9 Sample 5  DU        1     101.    NA      NA     NA    
## 10 Sample 5  DU        1     137.     1.95    1.89   0.242
## # ... with 14 more rows
…
